<?xml version="1.0" encoding="UTF-8" standalone="no"?>
<svg xmlns="http://www.w3.org/2000/svg" contentStyleType="text/css" height="771px" preserveAspectRatio="none"
     style="width:1557px;height:771px;background:#FFFFFF;" version="1.1" viewBox="0 0 1557 771" width="1557px"
     zoomAndPan="magnify">
    <defs/>
    <g>
        <rect fill="none" height="27.6094" id="_title" style="stroke:none;stroke-width:1.0;" width="407" x="576"
              y="10"/>
        <text fill="#000000" font-family="sans-serif" font-size="14" font-weight="bold" lengthAdjust="spacing"
              textLength="397" x="581" y="29.5332">RabbitMQ - base request-response error communication
        </text>
        <rect fill="#DDDDDD" height="720.8672" style="stroke:#181818;stroke-width:0.5;" width="707" x="318"
              y="44.6094"/>
        <text fill="#000000" font-family="sans-serif" font-size="13" font-weight="bold" lengthAdjust="spacing"
              textLength="106" x="618.5" y="58.1045">RabbitMq Broker
        </text>
        <rect fill="#FFFFFF" height="117.0547" style="stroke:#181818;stroke-width:1.0;" width="10" x="1334"
              y="378.7344"/>
        <rect fill="none" height="376.5391" style="stroke:#000000;stroke-width:1.5;" width="1540" x="10" y="291.3281"/>
        <line style="stroke:#181818;stroke-width:0.5;stroke-dasharray:5.0,5.0;" x1="109" x2="109" y1="121.2188"
              y2="549.9766"/>
        <line style="stroke:#A80036;stroke-width:1.0;stroke-dasharray:1.0,4.0;" x1="109" x2="109" y1="549.9766"
              y2="591.8125"/>
        <line style="stroke:#181818;stroke-width:0.5;stroke-dasharray:5.0,5.0;" x1="109" x2="109" y1="591.8125"
              y2="684.8672"/>
        <line style="stroke:#181818;stroke-width:0.5;stroke-dasharray:5.0,5.0;" x1="389" x2="389" y1="121.2188"
              y2="549.9766"/>
        <line style="stroke:#A80036;stroke-width:1.0;stroke-dasharray:1.0,4.0;" x1="389" x2="389" y1="549.9766"
              y2="591.8125"/>
        <line style="stroke:#181818;stroke-width:0.5;stroke-dasharray:5.0,5.0;" x1="389" x2="389" y1="591.8125"
              y2="684.8672"/>
        <line style="stroke:#181818;stroke-width:0.5;stroke-dasharray:5.0,5.0;" x1="760" x2="760" y1="121.2188"
              y2="549.9766"/>
        <line style="stroke:#A80036;stroke-width:1.0;stroke-dasharray:1.0,4.0;" x1="760" x2="760" y1="549.9766"
              y2="591.8125"/>
        <line style="stroke:#181818;stroke-width:0.5;stroke-dasharray:5.0,5.0;" x1="760" x2="760" y1="591.8125"
              y2="684.8672"/>
        <line style="stroke:#181818;stroke-width:0.5;stroke-dasharray:5.0,5.0;" x1="932" x2="932" y1="121.2188"
              y2="549.9766"/>
        <line style="stroke:#A80036;stroke-width:1.0;stroke-dasharray:1.0,4.0;" x1="932" x2="932" y1="549.9766"
              y2="591.8125"/>
        <line style="stroke:#181818;stroke-width:0.5;stroke-dasharray:5.0,5.0;" x1="932" x2="932" y1="591.8125"
              y2="684.8672"/>
        <line style="stroke:#181818;stroke-width:0.5;stroke-dasharray:5.0,5.0;" x1="1338.5" x2="1338.5" y1="121.2188"
              y2="549.9766"/>
        <line style="stroke:#A80036;stroke-width:1.0;stroke-dasharray:1.0,4.0;" x1="1338.5" x2="1338.5" y1="549.9766"
              y2="591.8125"/>
        <line style="stroke:#181818;stroke-width:0.5;stroke-dasharray:5.0,5.0;" x1="1338.5" x2="1338.5" y1="591.8125"
              y2="684.8672"/>
        <text fill="#000000" font-family="sans-serif" font-size="14" lengthAdjust="spacing" textLength="173" x="20"
              y="118.1426">RabbitMq Client Application
        </text>
        <ellipse cx="109.5" cy="52.1094" fill="#E2E2F0" rx="8" ry="8" style="stroke:#181818;stroke-width:0.5;"/>
        <path d="M109.5,60.1094 L109.5,87.1094 M96.5,68.1094 L122.5,68.1094 M109.5,87.1094 L96.5,102.1094 M109.5,87.1094 L122.5,102.1094 "
              fill="none" style="stroke:#181818;stroke-width:0.5;"/>
        <text fill="#000000" font-family="sans-serif" font-size="14" lengthAdjust="spacing" textLength="173" x="20"
              y="698.4004">RabbitMq Client Application
        </text>
        <ellipse cx="109.5" cy="709.9766" fill="#E2E2F0" rx="8" ry="8" style="stroke:#181818;stroke-width:0.5;"/>
        <path d="M109.5,717.9766 L109.5,744.9766 M96.5,725.9766 L122.5,725.9766 M109.5,744.9766 L96.5,759.9766 M109.5,744.9766 L122.5,759.9766 "
              fill="none" style="stroke:#181818;stroke-width:0.5;"/>
        <text fill="#000000" font-family="sans-serif" font-size="14" lengthAdjust="spacing" textLength="129" x="322"
              y="118.1426">calculationExchange
        </text>
        <ellipse cx="389.5" cy="87.6094" fill="#E2E2F0" rx="12" ry="12" style="stroke:#181818;stroke-width:0.5;"/>
        <polygon fill="#181818" points="385.5,75.6094,391.5,70.6094,389.5,75.6094,391.5,80.6094,385.5,75.6094"
                 style="stroke:#181818;stroke-width:1.0;"/>
        <text fill="#000000" font-family="sans-serif" font-size="14" lengthAdjust="spacing" textLength="129" x="322"
              y="698.4004">calculationExchange
        </text>
        <ellipse cx="389.5" cy="717.4766" fill="#E2E2F0" rx="12" ry="12" style="stroke:#181818;stroke-width:0.5;"/>
        <polygon fill="#181818" points="385.5,705.4766,391.5,700.4766,389.5,705.4766,391.5,710.4766,385.5,705.4766"
                 style="stroke:#181818;stroke-width:1.0;"/>
        <text fill="#000000" font-family="sans-serif" font-size="14" lengthAdjust="spacing" textLength="139" x="688"
              y="118.1426">sumCalculationQueue
        </text>
        <ellipse cx="760.5" cy="87.6094" fill="#E2E2F0" rx="12" ry="12" style="stroke:#181818;stroke-width:0.5;"/>
        <polygon fill="#181818" points="756.5,75.6094,762.5,70.6094,760.5,75.6094,762.5,80.6094,756.5,75.6094"
                 style="stroke:#181818;stroke-width:1.0;"/>
        <text fill="#000000" font-family="sans-serif" font-size="14" lengthAdjust="spacing" textLength="139" x="688"
              y="698.4004">sumCalculationQueue
        </text>
        <ellipse cx="760.5" cy="717.4766" fill="#E2E2F0" rx="12" ry="12" style="stroke:#181818;stroke-width:0.5;"/>
        <polygon fill="#181818" points="756.5,705.4766,762.5,700.4766,760.5,705.4766,762.5,710.4766,756.5,705.4766"
                 style="stroke:#181818;stroke-width:1.0;"/>
        <text fill="#000000" font-family="sans-serif" font-size="14" lengthAdjust="spacing" textLength="172" x="843"
              y="118.1426">anonymousQuueue123123
        </text>
        <ellipse cx="932" cy="87.6094" fill="#E2E2F0" rx="12" ry="12" style="stroke:#181818;stroke-width:0.5;"/>
        <polygon fill="#181818" points="928,75.6094,934,70.6094,932,75.6094,934,80.6094,928,75.6094"
                 style="stroke:#181818;stroke-width:1.0;"/>
        <text fill="#000000" font-family="sans-serif" font-size="14" lengthAdjust="spacing" textLength="172" x="843"
              y="698.4004">anonymousQuueue123123
        </text>
        <ellipse cx="932" cy="717.4766" fill="#E2E2F0" rx="12" ry="12" style="stroke:#181818;stroke-width:0.5;"/>
        <polygon fill="#181818" points="928,705.4766,934,700.4766,932,705.4766,934,710.4766,928,705.4766"
                 style="stroke:#181818;stroke-width:1.0;"/>
        <text fill="#000000" font-family="sans-serif" font-size="14" lengthAdjust="spacing" textLength="179" x="1246.5"
              y="118.1426">RabbitMq Server Application
        </text>
        <path d="M1318.5,75.6094 L1318.5,99.6094 M1318.5,87.6094 L1335.5,87.6094 " fill="none"
              style="stroke:#181818;stroke-width:0.5;"/>
        <ellipse cx="1347.5" cy="87.6094" fill="#E2E2F0" rx="12" ry="12" style="stroke:#181818;stroke-width:0.5;"/>
        <text fill="#000000" font-family="sans-serif" font-size="14" lengthAdjust="spacing" textLength="179" x="1246.5"
              y="698.4004">RabbitMq Server Application
        </text>
        <path d="M1318.5,705.4766 L1318.5,729.4766 M1318.5,717.4766 L1335.5,717.4766 " fill="none"
              style="stroke:#181818;stroke-width:0.5;"/>
        <ellipse cx="1347.5" cy="717.4766" fill="#E2E2F0" rx="12" ry="12" style="stroke:#181818;stroke-width:0.5;"/>
        <rect fill="#FFFFFF" height="117.0547" style="stroke:#181818;stroke-width:1.0;" width="10" x="1334"
              y="378.7344"/>
        <polygon fill="#181818" points="771.5,149.5703,761.5,153.5703,771.5,157.5703,767.5,153.5703"
                 style="stroke:#181818;stroke-width:1.0;"/>
        <line style="stroke:#181818;stroke-width:1.0;stroke-dasharray:2.0,2.0;" x1="765.5" x2="1338" y1="153.5703"
              y2="153.5703"/>
        <text fill="#000000" font-family="sans-serif" font-size="13" lengthAdjust="spacing" textLength="174" x="777.5"
              y="148.7139">Listen on queue for messages
        </text>
        <line style="stroke:#181818;stroke-width:1.0;stroke-dasharray:2.0,2.0;" x1="109.5" x2="151.5" y1="183.9219"
              y2="183.9219"/>
        <line style="stroke:#181818;stroke-width:1.0;stroke-dasharray:2.0,2.0;" x1="151.5" x2="151.5" y1="183.9219"
              y2="196.9219"/>
        <line style="stroke:#181818;stroke-width:1.0;stroke-dasharray:2.0,2.0;" x1="110.5" x2="151.5" y1="196.9219"
              y2="196.9219"/>
        <polygon fill="#181818" points="120.5,192.9219,110.5,196.9219,120.5,200.9219,116.5,196.9219"
                 style="stroke:#181818;stroke-width:1.0;"/>
        <text fill="#000000" font-family="sans-serif" font-size="13" lengthAdjust="spacing" textLength="219" x="116.5"
              y="179.0654">Prepare message with reply-to header
        </text>
        <polygon fill="#181818" points="377.5,272.3281,387.5,276.3281,377.5,280.3281,381.5,276.3281"
                 style="stroke:#181818;stroke-width:1.0;"/>
        <line style="stroke:#181818;stroke-width:1.0;stroke-dasharray:2.0,2.0;" x1="109.5" x2="383.5" y1="276.3281"
              y2="276.3281"/>
        <text fill="#000000" font-family="sans-serif" font-size="13" lengthAdjust="spacing" textLength="162" x="116.5"
              y="222.417">Send message to exchange
        </text>
        <text fill="#000000" font-family="sans-serif" font-size="13" lengthAdjust="spacing" textLength="190" x="116.5"
              y="238.7686">Exchange: 'calculationExchange'
        </text>
        <text fill="#000000" font-family="sans-serif" font-size="13" lengthAdjust="spacing" textLength="208" x="116.5"
              y="255.1201">Routing key: 'sumCalculationQueue'
        </text>
        <text fill="#000000" font-family="sans-serif" font-size="13" lengthAdjust="spacing" textLength="256" x="116.5"
              y="271.4717">Reply-to header: "anonymousQueue123123"
        </text>
        <path d="M10,291.3281 L76,291.3281 L76,299.6797 L66,309.6797 L10,309.6797 L10,291.3281 " fill="#EEEEEE"
              style="stroke:#000000;stroke-width:1.5;"/>
        <rect fill="none" height="376.5391" style="stroke:#000000;stroke-width:1.5;" width="1540" x="10" y="291.3281"/>
        <text fill="#000000" font-family="sans-serif" font-size="13" font-weight="bold" lengthAdjust="spacing"
              textLength="21" x="25" y="305.8232">par
        </text>
        <text fill="#000000" font-family="sans-serif" font-size="11" font-weight="bold" lengthAdjust="spacing"
              textLength="223" x="91" y="304.7471">[Process message by rabbit and server]
        </text>
        <polygon fill="#181818" points="748.5,344.3828,758.5,348.3828,748.5,352.3828,752.5,348.3828"
                 style="stroke:#181818;stroke-width:1.0;"/>
        <line style="stroke:#181818;stroke-width:1.0;" x1="389.5" x2="754.5" y1="348.3828" y2="348.3828"/>
        <text fill="#000000" font-family="sans-serif" font-size="13" lengthAdjust="spacing" textLength="347" x="396.5"
              y="327.1748">RabbitMq server uses routing key and bindings configuration
        </text>
        <text fill="#000000" font-family="sans-serif" font-size="13" lengthAdjust="spacing" textLength="247" x="396.5"
              y="343.5264">to route message to sumCalculationQueue
        </text>
        <polygon fill="#181818" points="1322,374.7344,1332,378.7344,1322,382.7344,1326,378.7344"
                 style="stroke:#181818;stroke-width:1.0;"/>
        <line style="stroke:#181818;stroke-width:1.0;" x1="760.5" x2="1328" y1="378.7344" y2="378.7344"/>
        <text fill="#000000" font-family="sans-serif" font-size="13" lengthAdjust="spacing" textLength="144" x="767.5"
              y="373.8779">Server receives message
        </text>
        <line style="stroke:#181818;stroke-width:1.0;" x1="1344" x2="1386" y1="409.0859" y2="409.0859"/>
        <line style="stroke:#181818;stroke-width:1.0;" x1="1386" x2="1386" y1="409.0859" y2="422.0859"/>
        <line style="stroke:#181818;stroke-width:1.0;" x1="1345" x2="1386" y1="422.0859" y2="422.0859"/>
        <polygon fill="#181818" points="1355,418.0859,1345,422.0859,1355,426.0859,1351,422.0859"
                 style="stroke:#181818;stroke-width:1.0;"/>
        <text fill="#000000" font-family="sans-serif" font-size="13" lengthAdjust="spacing" textLength="187" x="1351"
              y="404.2295">Process message, perform logic
        </text>
        <line style="stroke:#181818;stroke-width:1.0;" x1="1344" x2="1386" y1="452.4375" y2="452.4375"/>
        <line style="stroke:#181818;stroke-width:1.0;" x1="1386" x2="1386" y1="452.4375" y2="465.4375"/>
        <line style="stroke:#181818;stroke-width:1.0;" x1="1345" x2="1386" y1="465.4375" y2="465.4375"/>
        <polygon fill="#181818" points="1355,461.4375,1345,465.4375,1355,469.4375,1351,465.4375"
                 style="stroke:#181818;stroke-width:1.0;"/>
        <text fill="#000000" font-family="sans-serif" font-size="13" lengthAdjust="spacing" textLength="107" x="1351"
              y="447.5811">Some error occurs
        </text>
        <line style="stroke:#181818;stroke-width:2.0;" x1="939" x2="949" y1="490.7891" y2="500.7891"/>
        <line style="stroke:#181818;stroke-width:2.0;" x1="939" x2="949" y1="500.7891" y2="490.7891"/>
        <line style="stroke:#181818;stroke-width:1.0;" x1="944" x2="1338" y1="495.7891" y2="495.7891"/>
        <text fill="#000000" font-family="sans-serif" font-size="13" lengthAdjust="spacing" textLength="378" x="949"
              y="490.9326">Error occurs and server does not send message to reply-to queue
        </text>
        <line style="stroke:#000000;stroke-width:1.0;stroke-dasharray:2.0,2.0;" x1="10" x2="1550" y1="504.7891"
              y2="504.7891"/>
        <text fill="#000000" font-family="sans-serif" font-size="11" font-weight="bold" lengthAdjust="spacing"
              textLength="108" x="15" y="516.208">[Receive response]
        </text>
        <polygon fill="#181818" points="920,537.9766,930,541.9766,920,545.9766,924,541.9766"
                 style="stroke:#181818;stroke-width:1.0;"/>
        <line style="stroke:#181818;stroke-width:1.0;" x1="109.5" x2="926" y1="541.9766" y2="541.9766"/>
        <text fill="#000000" font-family="sans-serif" font-size="13" lengthAdjust="spacing" textLength="214" x="116.5"
              y="537.1201">Listen for message on reply-to queue
        </text>
        <text fill="#000000" font-family="sans-serif" font-size="11" lengthAdjust="spacing" textLength="150" x="649.25"
              y="575.3955">configured receive timeout time
        </text>
        <line style="stroke:#181818;stroke-width:1.0;" x1="109.5" x2="151.5" y1="646.8672" y2="646.8672"/>
        <line style="stroke:#181818;stroke-width:1.0;" x1="151.5" x2="151.5" y1="646.8672" y2="659.8672"/>
        <line style="stroke:#181818;stroke-width:1.0;" x1="110.5" x2="151.5" y1="659.8672" y2="659.8672"/>
        <polygon fill="#181818" points="120.5,655.8672,110.5,659.8672,120.5,663.8672,116.5,659.8672"
                 style="stroke:#181818;stroke-width:1.0;"/>
        <text fill="#000000" font-family="sans-serif" font-size="13" lengthAdjust="spacing" textLength="246" x="116.5"
              y="609.3076">Client detects timeout waiting for response
        </text>
        <text fill="#000000" font-family="sans-serif" font-size="13" lengthAdjust="spacing" textLength="245" x="116.5"
              y="625.6592">it results in receiving "null" or "0" response
        </text>
        <text fill="#000000" font-family="sans-serif" font-size="13" lengthAdjust="spacing" textLength="163" x="116.5"
              y="642.0107">depending on response type
        </text><!--MD5=[35dcac3d231b891e10c1aafd7cd777b2]
@startuml rabbit-mq-base-request-response-error-communication
title RabbitMQ - base request-response error communication
actor "RabbitMq Client Application" as client
box "RabbitMq Broker"
    control "calculationExchange" as exchange
    control "sumCalculationQueue" as queue
    control "anonymousQuueue123123" as responseQueue
end box
boundary "RabbitMq Server Application" as server

server - -> queue : Listen on queue for messages
client - -> client : Prepare message with reply-to header
client - - -> exchange : Send message to exchange\nExchange: 'calculationExchange'\nRouting key: 'sumCalculationQueue'\nReply-to header: "anonymousQueue123123"
par Process message by rabbit and server
    exchange -> queue : RabbitMq server uses routing key and bindings configuration\nto route message to sumCalculationQueue
    queue -> server : Server receives message
    activate server
    server -> server : Process message, perform logic
    server -> server : Some error occurs
    server ->x responseQueue : Error occurs and server does not send message to reply-to queue
    deactivate server
else Receive response
    client -> responseQueue : Listen for message on reply-to queue
    ... configured receive timeout time ...
    client -> client : Client detects timeout waiting for response\nit results in receiving "null" or "0" response\ndepending on response type
end par
@enduml

PlantUML version 1.2022.7(Mon Aug 22 19:01:30 CEST 2022)
(GPL source distribution)
Java Runtime: OpenJDK Runtime Environment
JVM: OpenJDK 64-Bit Server VM
Default Encoding: Cp1252
Language: en
Country: US
-->
    </g>
</svg>
