@startuml rabbit-mq-base-request-response-communication
title RabbitMQ - base request-response communication
actor "RabbitMq Client Application" as client
box "RabbitMq Broker"
    control "calculationExchange" as exchange
    control "sumCalculationQueue" as queue
    control "anonymousQuueue123123" as responseQueue
end box
boundary "RabbitMq Server Application" as server

server --> queue : Listen on queue for messages
client --> client : Prepare message with reply-to header
client ---> exchange : Send message to exchange\nExchange: 'calculationExchange'\nRouting key: 'sumCalculationQueue'\nReply-to header: "anonymousQueue123123"
par Process message by rabbit and server
    exchange -> queue : RabbitMq server uses routing key and bindings configuration\nto route message to sumCalculationQueue
    queue -> server : Server receives message
    activate server
    server -> server : Process message, perform logic
    server -> responseQueue : Server uses "reply-to" header to get queue name\nand sends response message there
    deactivate server
else Receive response
    client -> responseQueue : Listen for message on reply-to queue
    ... server processing time ...
    responseQueue -> client : Client receives message
end par
@enduml